Server Network Stats

00 07 
91 06
00 00 00 00
00 00 00 00 00 00 00 00
00 00 00 00 00 00 00 00
00 00 00 00 00 00 00 02
00 00 00 00 00 00 00 01


00 08
91 06 # 37126
84 DD 64 EC # 2229101804
00 00 00 00 00 00 00 02
00 00 00 00 00 00 00 01
00 00 00 00 00 00 00 02
00 00 00 00 00 00 00 02



# ------------------------------------------------------------------------------------------------------------------------------
# ------------------------------------------------------------------------------------------------------------------------------
# ------------------------------------------------------------------------------------------------------------------------------



00 07 93 57 00 00 00 00-00 00 00 00 00 00 00 00 00 00 00 00 00 00 00 00-00 00 00 00 00 00 00 02 00 00 00 00 00 00 00 01
00 08
93 57 # 37719
84 DD 74 BA # 2229105850
00 00 00 00 00 00 00 02
00 00 00 00 00 00 00 01
00 00 00 00 00 00 00 02
00 00 00 00 00 00 00 02