0x05, 0x00, 0x46, 0x5E, 0xCE, 0x80, 0x0B, 0x00, 0x00, 0x00, 0x03, 0x01, 
0x00, 0x00, 0x8C, 0xD5, 0x88, 0xCA, 0x33, 0x00, 0x00, 0x00, 0x00, 
0x00, 0x00, 0x00, 0xA6, 0xF5, 0x94, 0x9F, 0x34, 0x00, 0x00, 0x00, 
0xFE, 0x7C, 0x7D, 0xE3, 0x41, 0x00, 0x00, 0x00, 0xFF, 0x7C, 0x7D, 
0xE3, 0x41, 0x00, 0x00, 0x00, 0x03, 0x00, 0x00, 0x00, 0x00, 0x08, 
0x00, 0x00, 0x00, 

0x19, 0x00,  # String[25]: "craft_armor_ingredients_n"
0x63, 0x72, 0x61, 0x66, 0x74, 0x5F, 0x61, 0x72, 0x6D, 0x6F, 0x72, 
0x5F, 0x69, 0x6E, 0x67, 0x72, 0x65, 0x64, 0x69, 0x65, 0x6E, 0x74, 
0x73, 0x5F, 0x6E, 

0x00, 0x00, 0x00, 0x00, 

0x14, 0x00,  # String[20]: "appearance_fragments"
0x61, 0x70, 0x70, 0x65, 0x61, 0x72, 0x61, 0x6E, 0x63, 0x65, 0x5F, 
0x66, 0x72, 0x61, 0x67, 0x6D, 0x65, 0x6E, 0x74, 0x73, 

0x00, 0x01, 0x00, 0x00, 0x00, 

0x19, 0x00,  # String[25]: "craft_armor_ingredients_n"
0x63, 0x72, 0x61, 0x66, 0x74, 0x5F, 0x61, 0x72, 0x6D, 0x6F, 0x72, 
0x5F, 0x69, 0x6E, 0x67, 0x72, 0x65, 0x64, 0x69, 0x65, 0x6E, 0x74, 
0x73, 0x5F, 0x6E, 

0x00, 0x00, 0x00, 0x00, 

0x14, 0x00,  # String[20]: "appearance_fragments"
0x61, 0x70, 0x70, 0x65, 0x61, 0x72, 0x61, 0x6E, 0x63, 0x65, 0x5F, 
0x66, 0x72, 0x61, 0x67, 0x6D, 0x65, 0x6E, 0x74, 0x73, 

0x17, 0x00, 0x00, 0x00,  # String[23]: "petrochem_inert_polymer"
0x70, 0x00, 0x65, 0x00, 0x74, 0x00, 0x72, 0x00, 0x6F, 
0x00, 0x63, 0x00, 0x68, 0x00, 0x65, 0x00, 0x6D, 0x00, 0x5F, 0x00, 
0x69, 0x00, 0x6E, 0x00, 0x65, 0x00, 0x72, 0x00, 0x74, 0x00, 0x5F, 
0x00, 0x70, 0x00, 0x6F, 0x00, 0x6C, 0x00, 0x79, 0x00, 0x6D, 0x00, 
0x65, 0x00, 0x72, 0x00, 

0x04, 0x19, 0x00, 0x00, 0x00, 

0x19, 0x00,  # String[25]: "craft_armor_ingredients_n"
0x63, 0x72, 0x61, 0x66, 0x74, 0x5F, 0x61, 0x72, 0x6D, 0x6F, 0x72, 
0x5F, 0x69, 0x6E, 0x67, 0x72, 0x65, 0x64, 0x69, 0x65, 0x6E, 0x74, 
0x73, 0x5F, 0x6E, 

0x00, 0x00, 0x00, 0x00, 

0x10, 0x00,  # String[16]: "armor_core_frame"
0x61, 0x72, 0x6D, 0x6F, 0x72, 0x5F, 0x63, 0x6F, 0x72, 0x65, 0x5F, 
0x66, 0x72, 0x61, 0x6D, 0x65, 

0x00, 0x01, 0x00, 0x00, 0x00, 

0x19, 0x00,  # String[25]: "craft_armor_ingredients_n"
0x63, 0x72, 0x61, 0x66, 0x74, 0x5F, 0x61, 0x72, 0x6D, 0x6F, 0x72, 
0x5F, 0x69, 0x6E, 0x67, 0x72, 0x65, 0x64, 0x69, 0x65, 0x6E, 0x74, 
0x73, 0x5F, 0x6E, 

0x00, 0x00, 0x00, 0x00, 

0x10, 0x00,  # String[16]: "armor_core_frame"
0x61, 0x72, 0x6D, 0x6F, 0x72, 0x5F, 0x63, 0x6F, 0x72, 0x65, 0x5F, 
0x66, 0x72, 0x61, 0x6D, 0x65, 

0x05, 0x00, 0x00, 0x00,  # String[5]: "metal"
0x6D, 0x00, 0x65, 0x00, 0x74, 0x00, 0x61, 0x00, 0x6C, 
0x00, 

0x04, 0x19, 0x00, 0x00, 0x00, 

0x19, 0x00,  # String[25]: "craft_armor_ingredients_n"
0x63, 0x72, 0x61, 0x66, 0x74, 0x5F, 0x61, 0x72, 0x6D, 0x6F, 0x72, 
0x5F, 0x69, 0x6E, 0x67, 0x72, 0x65, 0x64, 0x69, 0x65, 0x6E, 0x74, 
0x73, 0x5F, 0x6E, 

0x00, 0x00, 0x00, 0x00, 

0x0A, 0x00,  # String[10]: "armor_core"
0x61, 0x72, 0x6D, 0x6F, 0x72, 0x5F, 0x63, 0x6F, 0x72, 0x65, 

0x00, 0x01, 0x00, 0x00, 0x00, 

0x19, 0x00,  # String[25]: "craft_armor_ingredients_n"
0x63, 0x72, 0x61, 0x66, 0x74, 0x5F, 0x61, 0x72, 0x6D, 0x6F, 0x72, 
0x5F, 0x69, 0x6E, 0x67, 0x72, 0x65, 0x64, 0x69, 0x65, 0x6E, 0x74, 
0x73, 0x5F, 0x6E, 

0x00, 0x00, 0x00, 0x00, 

0x0A, 0x00,  # String[10]: "armor_core"
0x61, 0x72, 0x6D, 0x6F, 0x72, 0x5F, 0x63, 0x6F, 0x72, 0x65, 

0x3D, 0x00, 0x00, 0x00,  # String[61]: "object/tangible/component/armor/shared_armor_core_assault.iff"
0x6F, 0x00, 0x62, 0x00, 0x6A, 0x00, 0x65, 0x00, 0x63, 
0x00, 0x74, 0x00, 0x2F, 0x00, 0x74, 0x00, 0x61, 0x00, 0x6E, 0x00, 
0x67, 0x00, 0x69, 0x00, 0x62, 0x00, 0x6C, 0x00, 0x65, 0x00, 0x2F, 
0x00, 0x63, 0x00, 0x6F, 0x00, 0x6D, 0x00, 0x70, 0x00, 0x6F, 0x00, 
0x6E, 0x00, 0x65, 0x00, 0x6E, 0x00, 0x74, 0x00, 0x2F, 0x00, 0x61, 
0x00, 0x72, 0x00, 0x6D, 0x00, 0x6F, 0x00, 0x72, 0x00, 0x2F, 0x00, 
0x73, 0x00, 0x68, 0x00, 0x61, 0x00, 0x72, 0x00, 0x65, 0x00, 0x64, 
0x00, 0x5F, 0x00, 0x61, 0x00, 0x72, 0x00, 0x6D, 0x00, 0x6F, 0x00, 
0x72, 0x00, 0x5F, 0x00, 0x63, 0x00, 0x6F, 0x00, 0x72, 0x00, 0x65, 0x00, 0x5F, 0x00, 0x61, 0x00, 0x73, 0x00, 0x73, 0x00, 0x61, 0x00, 0x75, 0x00, 0x6C, 0x00, 0x74, 0x00, 0x2E, 0x00, 0x69, 0x00, 0x66, 0x00, 0x66, 0x00, 

0x02, 0x01, 0x00, 0x00, 0x00, 0x00, 0x00, 

0x19, 0x00,  # String[25]: "craft_armor_ingredients_n"
0x63, 0x72, 0x61, 0x66, 0x74, 0x5F, 0x61, 0x72, 0x6D, 0x6F, 0x72, 
0x5F, 0x69, 0x6E, 0x67, 0x72, 0x65, 0x64, 0x69, 0x65, 0x6E, 0x74, 
0x73, 0x5F, 0x6E, 

0x00, 0x00, 0x00, 0x00, 

0x14, 0x00,  # String[20]: "load_bearing_harness"
0x6C, 0x6F, 0x61, 0x64, 0x5F, 0x62, 0x65, 0x61, 0x72, 0x69, 0x6E, 
0x67, 0x5F, 0x68, 0x61, 0x72, 0x6E, 0x65, 0x73, 0x73, 

0x00, 0x01, 0x00, 0x00, 0x00, 

0x19, 0x00,  # String[25]: "craft_armor_ingredients_n"
0x63, 0x72, 0x61, 0x66, 0x74, 0x5F, 0x61, 0x72, 0x6D, 0x6F, 0x72, 
0x5F, 0x69, 0x6E, 0x67, 0x72, 0x65, 0x64, 0x69, 0x65, 0x6E, 0x74, 
0x73, 0x5F, 0x6E, 

0x00, 0x00, 0x00, 0x00, 

0x14, 0x00,  # String[20]: "load_bearing_harness"
0x6C, 0x6F, 0x61, 0x64, 0x5F, 0x62, 0x65, 0x61, 0x72, 0x69, 0x6E, 
0x67, 0x5F, 0x68, 0x61, 0x72, 0x6E, 0x65, 0x73, 0x73, 

0x3D, 0x00, 0x00, 0x00,  # String[61]: "object/tangible/component/clothing/shared_synthetic_cloth.iff"
0x6F, 0x00, 0x62, 0x00, 0x6A, 0x00, 0x65, 0x00, 0x63, 
0x00, 0x74, 0x00, 0x2F, 0x00, 0x74, 0x00, 0x61, 0x00, 0x6E, 0x00, 
0x67, 0x00, 0x69, 0x00, 0x62, 0x00, 0x6C, 0x00, 0x65, 0x00, 0x2F, 
0x00, 0x63, 0x00, 0x6F, 0x00, 0x6D, 0x00, 0x70, 0x00, 0x6F, 0x00, 
0x6E, 0x00, 0x65, 0x00, 0x6E, 0x00, 0x74, 0x00, 0x2F, 0x00, 0x63, 
0x00, 0x6C, 0x00, 0x6F, 0x00, 0x74, 0x00, 0x68, 0x00, 0x69, 0x00, 
0x6E, 0x00, 0x67, 0x00, 0x2F, 0x00, 0x73, 0x00, 0x68, 0x00, 0x61, 
0x00, 0x72, 0x00, 0x65, 0x00, 0x64, 0x00, 0x5F, 0x00, 0x73, 0x00, 
0x79, 0x00, 0x6E, 0x00, 0x74, 0x00, 0x68, 0x00, 0x65, 0x00, 0x74, 0x00, 0x69, 0x00, 0x63, 0x00, 0x5F, 0x00, 0x63, 0x00, 0x6C, 0x00, 0x6F, 0x00, 0x74, 0x00, 0x68, 0x00, 0x2E, 0x00, 0x69, 0x00, 0x66, 0x00, 0x66, 0x00, 

0x02, 0x01, 0x00, 0x00, 0x00, 0x00, 0x00, 

0x19, 0x00,  # String[25]: "craft_armor_ingredients_n"
0x63, 0x72, 0x61, 0x66, 0x74, 0x5F, 0x61, 0x72, 0x6D, 0x6F, 0x72, 
0x5F, 0x69, 0x6E, 0x67, 0x72, 0x65, 0x64, 0x69, 0x65, 0x6E, 0x74, 
0x73, 0x5F, 0x6E, 

0x00, 0x00, 0x00, 0x00, 

0x0D, 0x00,  # String[13]: "reinforcement"
0x72, 0x65, 0x69, 0x6E, 0x66, 0x6F, 0x72, 0x63, 0x65, 0x6D, 0x65, 
0x6E, 0x74, 

0x00, 0x01, 0x00, 0x00, 0x00, 

0x19, 0x00,  # String[25]: "craft_armor_ingredients_n"
0x63, 0x72, 0x61, 0x66, 0x74, 0x5F, 0x61, 0x72, 0x6D, 0x6F, 0x72, 
0x5F, 0x69, 0x6E, 0x67, 0x72, 0x65, 0x64, 0x69, 0x65, 0x6E, 0x74, 
0x73, 0x5F, 0x6E, 

0x00, 0x00, 0x00, 0x00, 

0x0D, 0x00,  # String[13]: "reinforcement"
0x72, 0x65, 0x69, 0x6E, 0x66, 0x6F, 0x72, 0x63, 0x65, 0x6D, 0x65, 
0x6E, 0x74, 

0x45, 0x00, 0x00, 0x00,  # String[69]: "object/tangible/component/clothing/shared_reinforced_fiber_panels.iff"
0x6F, 0x00, 0x62, 0x00, 0x6A, 0x00, 0x65, 0x00, 0x63, 
0x00, 0x74, 0x00, 0x2F, 0x00, 0x74, 0x00, 0x61, 0x00, 0x6E, 0x00, 
0x67, 0x00, 0x69, 0x00, 0x62, 0x00, 0x6C, 0x00, 0x65, 0x00, 0x2F, 
0x00, 0x63, 0x00, 0x6F, 0x00, 0x6D, 0x00, 0x70, 0x00, 0x6F, 0x00, 
0x6E, 0x00, 0x65, 0x00, 0x6E, 0x00, 0x74, 0x00, 0x2F, 0x00, 0x63, 
0x00, 0x6C, 0x00, 0x6F, 0x00, 0x74, 0x00, 0x68, 0x00, 0x69, 0x00, 
0x6E, 0x00, 0x67, 0x00, 0x2F, 0x00, 0x73, 0x00, 0x68, 0x00, 0x61, 
0x00, 0x72, 0x00, 0x65, 0x00, 0x64, 0x00, 0x5F, 0x00, 0x72, 0x00, 
0x65, 0x00, 0x69, 0x00, 0x6E, 0x00, 0x66, 0x00, 0x6F, 0x00, 0x72, 0x00, 0x63, 0x00, 0x65, 0x00, 0x64, 0x00, 0x5F, 0x00, 0x66, 0x00, 0x69, 0x00, 0x62, 0x00, 0x65, 0x00, 0x72, 0x00, 0x5F, 0x00, 0x70, 0x00, 0x61, 0x00, 0x6E, 0x00, 0x65, 0x00, 0x6C, 0x00, 0x73, 0x00, 0x2E, 0x00, 0x69, 0x00, 0x66, 0x00, 0x66, 0x00, 

0x02, 0x01, 0x00, 0x00, 0x00, 0x00, 0x00, 

0x19, 0x00,  # String[25]: "craft_armor_ingredients_n"
0x63, 0x72, 0x61, 0x66, 0x74, 0x5F, 0x61, 0x72, 0x6D, 0x6F, 0x72, 
0x5F, 0x69, 0x6E, 0x67, 0x72, 0x65, 0x64, 0x69, 0x65, 0x6E, 0x74, 
0x73, 0x5F, 0x6E, 

0x00, 0x00, 0x00, 0x00, 

0x15, 0x00,  # String[21]: "enhancement_cartridge"
0x65, 0x6E, 0x68, 0x61, 0x6E, 0x63, 0x65, 0x6D, 0x65, 0x6E, 0x74, 
0x5F, 0x63, 0x61, 0x72, 0x74, 0x72, 0x69, 0x64, 0x67, 0x65, 

0x01, 0x01, 0x00, 0x00, 0x00, 

0x19, 0x00,  # String[25]: "craft_armor_ingredients_n"
0x63, 0x72, 0x61, 0x66, 0x74, 0x5F, 0x61, 0x72, 0x6D, 0x6F, 0x72, 
0x5F, 0x69, 0x6E, 0x67, 0x72, 0x65, 0x64, 0x69, 0x65, 0x6E, 0x74, 
0x73, 0x5F, 0x6E, 

0x00, 0x00, 0x00, 0x00, 

0x15, 0x00,  # String[21]: "enhancement_cartridge"
0x65, 0x6E, 0x68, 0x61, 0x6E, 0x63, 0x65, 0x6D, 0x65, 0x6E, 0x74, 
0x5F, 0x63, 0x61, 0x72, 0x74, 0x72, 0x69, 0x64, 0x67, 0x65, 

0x38, 0x00, 0x00, 0x00,  # String[56]: "object/tangible/component/armor/shared_bio_cartridge.iff"
0x6F, 0x00, 0x62, 0x00, 0x6A, 0x00, 0x65, 0x00, 0x63, 
0x00, 0x74, 0x00, 0x2F, 0x00, 0x74, 0x00, 0x61, 0x00, 0x6E, 0x00, 
0x67, 0x00, 0x69, 0x00, 0x62, 0x00, 0x6C, 0x00, 0x65, 0x00, 0x2F, 
0x00, 0x63, 0x00, 0x6F, 0x00, 0x6D, 0x00, 0x70, 0x00, 0x6F, 0x00, 
0x6E, 0x00, 0x65, 0x00, 0x6E, 0x00, 0x74, 0x00, 0x2F, 0x00, 0x61, 
0x00, 0x72, 0x00, 0x6D, 0x00, 0x6F, 0x00, 0x72, 0x00, 0x2F, 0x00, 
0x73, 0x00, 0x68, 0x00, 0x61, 0x00, 0x72, 0x00, 0x65, 0x00, 0x64, 
0x00, 0x5F, 0x00, 0x62, 0x00, 0x69, 0x00, 0x6F, 0x00, 0x5F, 0x00, 
0x63, 0x00, 0x61, 0x00, 0x72, 0x00, 0x74, 0x00, 0x72, 0x00, 0x69, 0x00, 0x64, 0x00, 0x67, 0x00, 0x65, 0x00, 0x2E, 0x00, 0x69, 0x00, 0x66, 0x00, 0x66, 0x00, 

0x02, 0x01, 0x00, 0x00, 0x00, 0x00, 0x00, 

0x19, 0x00,  # String[25]: "craft_armor_ingredients_n"
0x63, 0x72, 0x61, 0x66, 0x74, 0x5F, 0x61, 0x72, 0x6D, 0x6F, 0x72, 
0x5F, 0x69, 0x6E, 0x67, 0x72, 0x65, 0x64, 0x69, 0x65, 0x6E, 0x74, 
0x73, 0x5F, 0x6E, 

0x00, 0x00, 0x00, 0x00, 

0x1A, 0x00,  # String[26]: "appearance_enhancement_one"
0x61, 0x70, 0x70, 0x65, 0x61, 0x72, 0x61, 0x6E, 0x63, 0x65, 0x5F, 
0x65, 0x6E, 0x68, 0x61, 0x6E, 0x63, 0x65, 0x6D, 0x65, 0x6E, 0x74, 
0x5F, 0x6F, 0x6E, 0x65, 

0x01, 0x01, 0x00, 0x00, 0x00, 

0x19, 0x00,  # String[25]: "craft_armor_ingredients_n"
0x63, 0x72, 0x61, 0x66, 0x74, 0x5F, 0x61, 0x72, 0x6D, 0x6F, 0x72, 
0x5F, 0x69, 0x6E, 0x67, 0x72, 0x65, 0x64, 0x69, 0x65, 0x6E, 0x74, 
0x73, 0x5F, 0x6E, 

0x00, 0x00, 0x00, 0x00, 

0x1A, 0x00,  # String[26]: "appearance_enhancement_one"
0x61, 0x70, 0x70, 0x65, 0x61, 0x72, 0x61, 0x6E, 0x63, 0x65, 0x5F, 
0x65, 0x6E, 0x68, 0x61, 0x6E, 0x63, 0x65, 0x6D, 0x65, 0x6E, 0x74, 
0x5F, 0x6F, 0x6E, 0x65, 

0x4C, 0x00, 0x00, 0x00,  # String[76]: "object/tangible/component/armor/shared_armor_appearance_enhancement_base.iff"
0x6F, 0x00, 0x62, 0x00, 0x6A, 0x00, 0x65, 0x00, 0x63, 
0x00, 0x74, 0x00, 0x2F, 0x00, 0x74, 0x00, 0x61, 0x00, 0x6E, 0x00, 
0x67, 0x00, 0x69, 0x00, 0x62, 0x00, 0x6C, 0x00, 0x65, 0x00, 0x2F, 
0x00, 0x63, 0x00, 0x6F, 0x00, 0x6D, 0x00, 0x70, 0x00, 0x6F, 0x00, 
0x6E, 0x00, 0x65, 0x00, 0x6E, 0x00, 0x74, 0x00, 0x2F, 0x00, 0x61, 
0x00, 0x72, 0x00, 0x6D, 0x00, 0x6F, 0x00, 0x72, 0x00, 0x2F, 0x00, 
0x73, 0x00, 0x68, 0x00, 0x61, 0x00, 0x72, 0x00, 0x65, 0x00, 0x64, 
0x00, 0x5F, 0x00, 0x61, 0x00, 0x72, 0x00, 0x6D, 0x00, 0x6F, 0x00, 
0x72, 0x00, 0x5F, 0x00, 0x61, 0x00, 0x70, 0x00, 0x70, 0x00, 0x65, 0x00, 0x61, 0x00, 0x72, 0x00, 0x61, 0x00, 0x6E, 0x00, 0x63, 0x00, 0x65, 0x00, 0x5F, 0x00, 0x65, 0x00, 0x6E, 0x00, 0x68, 0x00, 0x61, 0x00, 0x6E, 0x00, 0x63, 0x00, 0x65, 0x00, 0x6D, 0x00, 0x65, 0x00, 0x6E, 0x00, 0x74, 0x00, 0x5F, 0x00, 0x62, 0x00, 0x61, 0x00, 0x73, 0x00, 0x65, 0x00, 0x2E, 0x00, 0x69, 0x00, 0x66, 0x00, 0x66, 0x00, 

0x02, 0x01, 0x00, 0x00, 0x00, 0x00, 0x00, 

0x19, 0x00,  # String[25]: "craft_armor_ingredients_n"
0x63, 0x72, 0x61, 0x66, 0x74, 0x5F, 0x61, 0x72, 0x6D, 0x6F, 0x72, 
0x5F, 0x69, 0x6E, 0x67, 0x72, 0x65, 0x64, 0x69, 0x65, 0x6E, 0x74, 
0x73, 0x5F, 0x6E, 

0x00, 0x00, 0x00, 0x00, 

0x1A, 0x00,  # String[26]: "appearance_enhancement_two"
0x61, 0x70, 0x70, 0x65, 0x61, 0x72, 0x61, 0x6E, 0x63, 0x65, 0x5F, 
0x65, 0x6E, 0x68, 0x61, 0x6E, 0x63, 0x65, 0x6D, 0x65, 0x6E, 0x74, 
0x5F, 0x74, 0x77, 0x6F, 

0x01, 0x01, 0x00, 0x00, 0x00, 

0x19, 0x00,  # String[25]: "craft_armor_ingredients_n"
0x63, 0x72, 0x61, 0x66, 0x74, 0x5F, 0x61, 0x72, 0x6D, 0x6F, 0x72, 
0x5F, 0x69, 0x6E, 0x67, 0x72, 0x65, 0x64, 0x69, 0x65, 0x6E, 0x74, 
0x73, 0x5F, 0x6E, 

0x00, 0x00, 0x00, 0x00, 

0x1A, 0x00,  # String[26]: "appearance_enhancement_two"
0x61, 0x70, 0x70, 0x65, 0x61, 0x72, 0x61, 0x6E, 0x63, 0x65, 0x5F, 
0x65, 0x6E, 0x68, 0x61, 0x6E, 0x63, 0x65, 0x6D, 0x65, 0x6E, 0x74, 
0x5F, 0x74, 0x77, 0x6F, 

0x50, 0x00, 0x00, 0x00,  # String[80]: "object/tangible/component/armor/shared_armor_appearance_enhancement_base_two.iff"
0x6F, 0x00, 0x62, 0x00, 0x6A, 0x00, 0x65, 0x00, 0x63, 
0x00, 0x74, 0x00, 0x2F, 0x00, 0x74, 0x00, 0x61, 0x00, 0x6E, 0x00, 
0x67, 0x00, 0x69, 0x00, 0x62, 0x00, 0x6C, 0x00, 0x65, 0x00, 0x2F, 
0x00, 0x63, 0x00, 0x6F, 0x00, 0x6D, 0x00, 0x70, 0x00, 0x6F, 0x00, 
0x6E, 0x00, 0x65, 0x00, 0x6E, 0x00, 0x74, 0x00, 0x2F, 0x00, 0x61, 
0x00, 0x72, 0x00, 0x6D, 0x00, 0x6F, 0x00, 0x72, 0x00, 0x2F, 0x00, 
0x73, 0x00, 0x68, 0x00, 0x61, 0x00, 0x72, 0x00, 0x65, 0x00, 0x64, 
0x00, 0x5F, 0x00, 0x61, 0x00, 0x72, 0x00, 0x6D, 0x00, 0x6F, 0x00, 
0x72, 0x00, 0x5F, 0x00, 0x61, 0x00, 0x70, 0x00, 0x70, 0x00, 0x65, 0x00, 0x61, 0x00, 0x72, 0x00, 0x61, 0x00, 0x6E, 0x00, 0x63, 0x00, 0x65, 0x00, 0x5F, 0x00, 0x65, 0x00, 0x6E, 0x00, 0x68, 0x00, 0x61, 0x00, 0x6E, 0x00, 0x63, 0x00, 0x65, 0x00, 0x6D, 0x00, 0x65, 0x00, 0x6E, 0x00, 0x74, 0x00, 0x5F, 0x00, 0x62, 0x00, 0x61, 0x00, 0x73, 0x00, 0x65, 0x00, 0x5F, 0x00, 0x74, 0x00, 0x77, 0x00, 0x6F, 0x00, 0x2E, 0x00, 0x69, 0x00, 0x66, 0x00, 0x66, 0x00, 

0x02, 0x01, 0x00, 0x00, 0x00, 0x00, 0x00, 